{
  "coreThing" : {
    "caPath": "AmazonRootCA1.pem",
    "certPath": "xxx-certificate.pem.crt",
    "keyPath": "xxx-private.pem.key",
    "thingArn": "arn:aws:iot:us-east-1:851725387994:thing/GreenGrassV1CoreA2",
    "iotHost": "endpoint-ats.iot.us-east-1.amazonaws.com",
    "ggHost": "greengrass-ats.iot.us-east-1.amazonaws.com",
    "keepAlive": 600
  },
  "runtime": {
    "cgroup": {
      "useSystemd": "yes"
    }
  },
  "managedRespawn": false,
  "crypto": {
    "caPath": "file:///greengrass/certs/AmazonRootCA1.pem",
    "principals": {
      "SecretsManager": {
        "privateKeyPath": "file:///greengrass/certs/xxx-private.pem.key"
      },
      "IoTCertificate": {
        "privateKeyPath": "file:///greengrass/certs/xxx-private.pem.key",
        "certificatePath": "file:///greengrass/certs/xxx-certificate.pem.crt"
      }
    }
  }
}
